…
fcn_deps("merTools") %>% as_data_frame

## # A tibble: 22 x 3
##    Function         Dependency_Function Number_Calls
##  * <fct>            <fct>                      <int>
##  1 averageObs       findFormFuns                   1
##  2 averageObs       REquantile                     1
##  3 averageObs       stripAttributes                1
##  4 averageObs       subsetList                     2
##  5 averageObs       superFactor                    1
##  6 buildModelMatrix mkNewReTrms                    1
##  7 buildModelMatrix reOnly                         1
##  8 buildModelMatrix RHSForm                        1
##  9 draw.merMod      averageObs                     1
## 10 draw.merMod      randomObs                      1
## # ... with 12 more rows
…
